[
  {
    "id": 1,
    "name": "Джинси Skinny Fit",
    "price": 699,
    "image": "https://static.mohito.com/media/catalog/product/cache/1200/a4e40ebdc3e371adff845072e1c73f37/9/1/9168T-05J-002-1-607609_3.jpg",
    "article": "9168T-05J",
    "color": "Синій"
  },
  {
    "id": 2,
    "name": "Кеди Converse Chuck Taylor",
    "price": 2850 ,
    "image": "https://kedoff.net/images/product/large/kedy-converse-chuck-taylor-all-star-classic-low-optical-white-m7652c-uniseks-belyiy-img-3.jpg?v=1584865747",
    "article": "m7652c",
    "color": "Білий"
  },
  {
    "id": 3,
    "name": "Кофта з вельвету",
    "price": 599,
    "image": "https://img.klubok.com/img/used/2020/12/23/28188/l/28188297_3.jpg",
    "article": "263 (23.12)",
    "color": "Мокко"
  },
  {
    "id": 4,
    "name": "Джинсовий плащ з капюшоном",
    "price": 1610,
    "image": "./img/76494843695168.webp",
    "article": "MLN4716",
    "color": "Синій"
  },
  {
    "id": 5,
    "name": "Плаття з рюшами",
    "price": 649,
    "image": "https://images.shafastatic.net/487217844",
    "article": "90184",
    "color": "Рожевий"
  },
  {
    "id": 6,
    "name": "Штани Joggers",
    "price": 970,
    "image": "./img/kUsy2GK1mc_t-Dx9LeGAaHd93dIah6Vi.jpeg",
    "article": "BZ-dzhoggery grey",
    "color": "Темно-сірий"
  },
  {
    "id": 7,
    "name": "Капелюх Fedora",
    "price": 559,
    "image": "https://content.rozetka.com.ua/goods/images/big/283875244.jpg",
    "article": "SHL-2228F",
    "color": "Бежевий"
  },
  {
    "id": 8,
    "name": "Куртка Bomber",
    "price": 1650,
    "image": "https://grogroshop.com.ua/image/cache/data/grogro/Marzo%2023/24328BB0-9734-4C18-BCC5-0D59001FEB2D-1000x1000.jpeg",
    "article": "TR-bobmer-toplyii",
    "color": "Чорний"
  },
  {
    "id": 9,
    "name": "Футболка Polo",
    "price": 998,
    "image": "https://im1.intimo.com.ua/html.works/images/goods_images/_29/59862/137986.jpg.webp",
    "article": "59862",
    "color": "Синій"
  },
  {
    "id": 10,
    "name": "Худі жіноче утеплене",
    "price": 949,
    "image": "https://www.ray-market.com.ua/wp-content/uploads/2021/09/0401-BRG1-1.jpg",
    "article": "BASIC U-0401",
    "color": "Бордо"
  }
]
